%YAML 1.1
%TAG !u! tag:unity3d.com,2011:
--- !u!1 &1435128118860860251
GameObject:
  m_ObjectHideFlags: 0
  m_CorrespondingSourceObject: {fileID: 0}
  m_PrefabInstance: {fileID: 0}
  m_PrefabAsset: {fileID: 0}
  serializedVersion: 6
  m_Component:
  - component: {fileID: 2018574893539170661}
  - component: {fileID: 9118222382829492459}
  m_Layer: 0
  m_Name: Grass Platform
  m_TagString: Untagged
  m_Icon: {fileID: 0}
  m_NavMeshLayer: 0
  m_StaticEditorFlags: 0
  m_IsActive: 1
--- !u!4 &2018574893539170661
Transform:
  m_ObjectHideFlags: 0
  m_CorrespondingSourceObject: {fileID: 0}
  m_PrefabInstance: {fileID: 0}
  m_PrefabAsset: {fileID: 0}
  m_GameObject: {fileID: 1435128118860860251}
  m_LocalRotation: {x: 0, y: 0, z: 0, w: 1}
  m_LocalPosition: {x: 0, y: 0, z: 0}
  m_LocalScale: {x: 1, y: 1, z: 1}
  m_ConstrainProportionsScale: 0
  m_Children:
  - {fileID: 2911212563580970881}
  m_Father: {fileID: 0}
  m_RootOrder: 0
  m_LocalEulerAnglesHint: {x: 0, y: 0, z: 0}
--- !u!156049354 &9118222382829492459
Grid:
  m_ObjectHideFlags: 0
  m_CorrespondingSourceObject: {fileID: 0}
  m_PrefabInstance: {fileID: 0}
  m_PrefabAsset: {fileID: 0}
  m_GameObject: {fileID: 1435128118860860251}
  m_Enabled: 1
  m_CellSize: {x: 1, y: 1, z: 0}
  m_CellGap: {x: 0, y: 0, z: 0}
  m_CellLayout: 0
  m_CellSwizzle: 0
--- !u!1 &6398552948790962124
GameObject:
  m_ObjectHideFlags: 0
  m_CorrespondingSourceObject: {fileID: 0}
  m_PrefabInstance: {fileID: 0}
  m_PrefabAsset: {fileID: 0}
  serializedVersion: 6
  m_Component:
  - component: {fileID: 2911212563580970881}
  - component: {fileID: 4954194949835325853}
  - component: {fileID: 7575158890395563434}
  m_Layer: 0
  m_Name: Layer1
  m_TagString: Untagged
  m_Icon: {fileID: 0}
  m_NavMeshLayer: 0
  m_StaticEditorFlags: 0
  m_IsActive: 1
--- !u!4 &2911212563580970881
Transform:
  m_ObjectHideFlags: 0
  m_CorrespondingSourceObject: {fileID: 0}
  m_PrefabInstance: {fileID: 0}
  m_PrefabAsset: {fileID: 0}
  m_GameObject: {fileID: 6398552948790962124}
  m_LocalRotation: {x: -0, y: -0, z: -0, w: 1}
  m_LocalPosition: {x: 0, y: 0, z: 0}
  m_LocalScale: {x: 1, y: 1, z: 1}
  m_ConstrainProportionsScale: 0
  m_Children: []
  m_Father: {fileID: 2018574893539170661}
  m_RootOrder: 0
  m_LocalEulerAnglesHint: {x: 0, y: 0, z: 0}
--- !u!1839735485 &4954194949835325853
Tilemap:
  m_ObjectHideFlags: 0
  m_CorrespondingSourceObject: {fileID: 0}
  m_PrefabInstance: {fileID: 0}
  m_PrefabAsset: {fileID: 0}
  m_GameObject: {fileID: 6398552948790962124}
  m_Enabled: 1
  m_Tiles:
  - first: {x: -1, y: -4, z: 0}
    second:
      serializedVersion: 2
      m_TileIndex: 20
      m_TileSpriteIndex: 20
      m_TileMatrixIndex: 0
      m_TileColorIndex: 0
      m_TileObjectToInstantiateIndex: 65535
      dummyAlignment: 0
      m_AllTileFlags: 1073741825
  - first: {x: 0, y: -4, z: 0}
    second:
      serializedVersion: 2
      m_TileIndex: 21
      m_TileSpriteIndex: 21
      m_TileMatrixIndex: 0
      m_TileColorIndex: 0
      m_TileObjectToInstantiateIndex: 65535
      dummyAlignment: 0
      m_AllTileFlags: 1073741825
  - first: {x: 1, y: -4, z: 0}
    second:
      serializedVersion: 2
      m_TileIndex: 22
      m_TileSpriteIndex: 22
      m_TileMatrixIndex: 0
      m_TileColorIndex: 0
      m_TileObjectToInstantiateIndex: 65535
      dummyAlignment: 0
      m_AllTileFlags: 1073741825
  - first: {x: -1, y: -3, z: 0}
    second:
      serializedVersion: 2
      m_TileIndex: 15
      m_TileSpriteIndex: 15
      m_TileMatrixIndex: 0
      m_TileColorIndex: 0
      m_TileObjectToInstantiateIndex: 65535
      dummyAlignment: 0
      m_AllTileFlags: 1073741825
  - first: {x: 0, y: -3, z: 0}
    second:
      serializedVersion: 2
      m_TileIndex: 16
      m_TileSpriteIndex: 16
      m_TileMatrixIndex: 0
      m_TileColorIndex: 0
      m_TileObjectToInstantiateIndex: 65535
      dummyAlignment: 0
      m_AllTileFlags: 1073741825
  - first: {x: 1, y: -3, z: 0}
    second:
      serializedVersion: 2
      m_TileIndex: 17
      m_TileSpriteIndex: 17
      m_TileMatrixIndex: 0
      m_TileColorIndex: 0
      m_TileObjectToInstantiateIndex: 65535
      dummyAlignment: 0
      m_AllTileFlags: 1073741825
  - first: {x: 2, y: -3, z: 0}
    second:
      serializedVersion: 2
      m_TileIndex: 18
      m_TileSpriteIndex: 18
      m_TileMatrixIndex: 0
      m_TileColorIndex: 0
      m_TileObjectToInstantiateIndex: 65535
      dummyAlignment: 0
      m_AllTileFlags: 1073741825
  - first: {x: 3, y: -3, z: 0}
    second:
      serializedVersion: 2
      m_TileIndex: 19
      m_TileSpriteIndex: 19
      m_TileMatrixIndex: 0
      m_TileColorIndex: 0
      m_TileObjectToInstantiateIndex: 65535
      dummyAlignment: 0
      m_AllTileFlags: 1073741825
  - first: {x: -1, y: -2, z: 0}
    second:
      serializedVersion: 2
      m_TileIndex: 10
      m_TileSpriteIndex: 10
      m_TileMatrixIndex: 0
      m_TileColorIndex: 0
      m_TileObjectToInstantiateIndex: 65535
      dummyAlignment: 0
      m_AllTileFlags: 1073741825
  - first: {x: 0, y: -2, z: 0}
    second:
      serializedVersion: 2
      m_TileIndex: 11
      m_TileSpriteIndex: 11
      m_TileMatrixIndex: 0
      m_TileColorIndex: 0
      m_TileObjectToInstantiateIndex: 65535
      dummyAlignment: 0
      m_AllTileFlags: 1073741825
  - first: {x: 1, y: -2, z: 0}
    second:
      serializedVersion: 2
      m_TileIndex: 12
      m_TileSpriteIndex: 12
      m_TileMatrixIndex: 0
      m_TileColorIndex: 0
      m_TileObjectToInstantiateIndex: 65535
      dummyAlignment: 0
      m_AllTileFlags: 1073741825
  - first: {x: 2, y: -2, z: 0}
    second:
      serializedVersion: 2
      m_TileIndex: 13
      m_TileSpriteIndex: 13
      m_TileMatrixIndex: 0
      m_TileColorIndex: 0
      m_TileObjectToInstantiateIndex: 65535
      dummyAlignment: 0
      m_AllTileFlags: 1073741825
  - first: {x: 3, y: -2, z: 0}
    second:
      serializedVersion: 2
      m_TileIndex: 14
      m_TileSpriteIndex: 14
      m_TileMatrixIndex: 0
      m_TileColorIndex: 0
      m_TileObjectToInstantiateIndex: 65535
      dummyAlignment: 0
      m_AllTileFlags: 1073741825
  - first: {x: -1, y: -1, z: 0}
    second:
      serializedVersion: 2
      m_TileIndex: 5
      m_TileSpriteIndex: 5
      m_TileMatrixIndex: 0
      m_TileColorIndex: 0
      m_TileObjectToInstantiateIndex: 65535
      dummyAlignment: 0
      m_AllTileFlags: 1073741825
  - first: {x: 0, y: -1, z: 0}
    second:
      serializedVersion: 2
      m_TileIndex: 6
      m_TileSpriteIndex: 6
      m_TileMatrixIndex: 0
      m_TileColorIndex: 0
      m_TileObjectToInstantiateIndex: 65535
      dummyAlignment: 0
      m_AllTileFlags: 1073741825
  - first: {x: 1, y: -1, z: 0}
    second:
      serializedVersion: 2
      m_TileIndex: 7
      m_TileSpriteIndex: 7
      m_TileMatrixIndex: 0
      m_TileColorIndex: 0
      m_TileObjectToInstantiateIndex: 65535
      dummyAlignment: 0
      m_AllTileFlags: 1073741825
  - first: {x: 2, y: -1, z: 0}
    second:
      serializedVersion: 2
      m_TileIndex: 8
      m_TileSpriteIndex: 8
      m_TileMatrixIndex: 0
      m_TileColorIndex: 0
      m_TileObjectToInstantiateIndex: 65535
      dummyAlignment: 0
      m_AllTileFlags: 1073741825
  - first: {x: 3, y: -1, z: 0}
    second:
      serializedVersion: 2
      m_TileIndex: 9
      m_TileSpriteIndex: 9
      m_TileMatrixIndex: 0
      m_TileColorIndex: 0
      m_TileObjectToInstantiateIndex: 65535
      dummyAlignment: 0
      m_AllTileFlags: 1073741825
  - first: {x: -1, y: 0, z: 0}
    second:
      serializedVersion: 2
      m_TileIndex: 0
      m_TileSpriteIndex: 0
      m_TileMatrixIndex: 0
      m_TileColorIndex: 0
      m_TileObjectToInstantiateIndex: 65535
      dummyAlignment: 0
      m_AllTileFlags: 1073741825
  - first: {x: 0, y: 0, z: 0}
    second:
      serializedVersion: 2
      m_TileIndex: 1
      m_TileSpriteIndex: 1
      m_TileMatrixIndex: 0
      m_TileColorIndex: 0
      m_TileObjectToInstantiateIndex: 65535
      dummyAlignment: 0
      m_AllTileFlags: 1073741825
  - first: {x: 1, y: 0, z: 0}
    second:
      serializedVersion: 2
      m_TileIndex: 2
      m_TileSpriteIndex: 2
      m_TileMatrixIndex: 0
      m_TileColorIndex: 0
      m_TileObjectToInstantiateIndex: 65535
      dummyAlignment: 0
      m_AllTileFlags: 1073741825
  - first: {x: 2, y: 0, z: 0}
    second:
      serializedVersion: 2
      m_TileIndex: 3
      m_TileSpriteIndex: 3
      m_TileMatrixIndex: 0
      m_TileColorIndex: 0
      m_TileObjectToInstantiateIndex: 65535
      dummyAlignment: 0
      m_AllTileFlags: 1073741825
  - first: {x: 3, y: 0, z: 0}
    second:
      serializedVersion: 2
      m_TileIndex: 4
      m_TileSpriteIndex: 4
      m_TileMatrixIndex: 0
      m_TileColorIndex: 0
      m_TileObjectToInstantiateIndex: 65535
      dummyAlignment: 0
      m_AllTileFlags: 1073741825
  m_AnimatedTiles: {}
  m_TileAssetArray:
  - m_RefCount: 1
    m_Data: {fileID: 11400000, guid: 2dc165543373a5b45a90494fd3d29ef2, type: 2}
  - m_RefCount: 1
    m_Data: {fileID: 11400000, guid: 4aaae89f654d4864ea90ce2e3d001f3b, type: 2}
  - m_RefCount: 1
    m_Data: {fileID: 11400000, guid: c501775c101d81e47923fbc688210d33, type: 2}
  - m_RefCount: 1
    m_Data: {fileID: 11400000, guid: eb1ffe9c3a948b243afb98b4a1cf5ac8, type: 2}
  - m_RefCount: 1
    m_Data: {fileID: 11400000, guid: d3a7fb2e2c6c44f4f8d3ded0c1217a73, type: 2}
  - m_RefCount: 1
    m_Data: {fileID: 11400000, guid: c5049aafc3595574b91aa6b05ebe95a1, type: 2}
  - m_RefCount: 1
    m_Data: {fileID: 11400000, guid: 911bc1fb9e4569d46ba8d6d4fc11e581, type: 2}
  - m_RefCount: 1
    m_Data: {fileID: 11400000, guid: 727ec8258e67fdb43bee6dc465d0ed6b, type: 2}
  - m_RefCount: 1
    m_Data: {fileID: 11400000, guid: b30a555484c75274fb98252226803ddc, type: 2}
  - m_RefCount: 1
    m_Data: {fileID: 11400000, guid: d600f0492e2fb084ba56226afbb066bc, type: 2}
  - m_RefCount: 1
    m_Data: {fileID: 11400000, guid: 6e56d74161870484b9cb7006d0e2360a, type: 2}
  - m_RefCount: 1
    m_Data: {fileID: 11400000, guid: c7b7ab8843fb7df41aff671bbd6b17f6, type: 2}
  - m_RefCount: 1
    m_Data: {fileID: 11400000, guid: 03e57fe70573bfb4896a9b962ce5f148, type: 2}
  - m_RefCount: 1
    m_Data: {fileID: 11400000, guid: 39e89d713909ae443a8ddb757fb641d6, type: 2}
  - m_RefCount: 1
    m_Data: {fileID: 11400000, guid: 2783d8572959f8045a83ea020433e3a8, type: 2}
  - m_RefCount: 1
    m_Data: {fileID: 11400000, guid: f8a6de0559d7e9044aa05cdb1872980a, type: 2}
  - m_RefCount: 1
    m_Data: {fileID: 11400000, guid: 7f5f7dce941d119439dcc68434d0a2c2, type: 2}
  - m_RefCount: 1
    m_Data: {fileID: 11400000, guid: 094ab4977ae10854ababac46948a79b0, type: 2}
  - m_RefCount: 1
    m_Data: {fileID: 11400000, guid: 24ae3033fdbccc44e96580e7b1cbb974, type: 2}
  - m_RefCount: 1
    m_Data: {fileID: 11400000, guid: 19f739c84a2a6c44cb85a401782580d9, type: 2}
  - m_RefCount: 1
    m_Data: {fileID: 11400000, guid: 90e5c43c6bdca2449977630a92e1d3ea, type: 2}
  - m_RefCount: 1
    m_Data: {fileID: 11400000, guid: 2a6520acc2884b847bda88c4ed1dd846, type: 2}
  - m_RefCount: 1
    m_Data: {fileID: 11400000, guid: 175a966b25135804e96806651e9bf602, type: 2}
  m_TileSpriteArray:
  - m_RefCount: 1
    m_Data: {fileID: 21300000, guid: e163d577fcee4fa4398de6ae37f554d2, type: 3}
  - m_RefCount: 1
    m_Data: {fileID: 21300000, guid: 10f272208848a494e8ca07ca6444b9b6, type: 3}
  - m_RefCount: 1
    m_Data: {fileID: 21300000, guid: 3508f1573909af1428b1c44c1ec34c3c, type: 3}
  - m_RefCount: 1
    m_Data: {fileID: 21300000, guid: 646453e4dbe45ed48b872a05d8eefbd6, type: 3}
  - m_RefCount: 1
    m_Data: {fileID: 21300000, guid: 744be3976944b754bbe6492c94dc45e4, type: 3}
  - m_RefCount: 1
    m_Data: {fileID: 21300000, guid: 1728b528a1d879141b698788b6fd05ef, type: 3}
  - m_RefCount: 1
    m_Data: {fileID: 21300000, guid: 5b1fdc387a8505c4eaf48dd0d9872643, type: 3}
  - m_RefCount: 1
    m_Data: {fileID: 21300000, guid: 72f94200b0117034b90150a90daf551f, type: 3}
  - m_RefCount: 1
    m_Data: {fileID: 21300000, guid: 19dd3fac0d0a33f4f8b571941054e3f7, type: 3}
  - m_RefCount: 1
    m_Data: {fileID: 21300000, guid: dabe91581cff3fc4d8b2185a6476ef4f, type: 3}
  - m_RefCount: 1
    m_Data: {fileID: 21300000, guid: 9142a53b01f878444ae52a936564cbaa, type: 3}
  - m_RefCount: 1
    m_Data: {fileID: 21300000, guid: cfe4e5f21bb46a441b5fe85fa649b7cd, type: 3}
  - m_RefCount: 1
    m_Data: {fileID: 21300000, guid: 59c87abf501fa4647ae33e5dc7c36c94, type: 3}
  - m_RefCount: 1
    m_Data: {fileID: 21300000, guid: 6abc9dad9a9b7814dab6ea164a88d084, type: 3}
  - m_RefCount: 1
    m_Data: {fileID: 21300000, guid: 8faf69609c8162843a842b489d7f1954, type: 3}
  - m_RefCount: 1
    m_Data: {fileID: 21300000, guid: aef3744cdda296b4d98da1864f895442, type: 3}
  - m_RefCount: 1
    m_Data: {fileID: 21300000, guid: 997e20906b83b364a8856dc9ff5ded04, type: 3}
  - m_RefCount: 1
    m_Data: {fileID: 21300000, guid: e0889321147b6ef4b81402f1942265c6, type: 3}
  - m_RefCount: 1
    m_Data: {fileID: 21300000, guid: abc819e191dd6ff48b3f3883b97c7247, type: 3}
  - m_RefCount: 1
    m_Data: {fileID: 21300000, guid: 788a42c5674b6114ebaeb435f455bef7, type: 3}
  - m_RefCount: 1
    m_Data: {fileID: 21300000, guid: 5406f9bf740fe624fa198230efceebc4, type: 3}
  - m_RefCount: 1
    m_Data: {fileID: 21300000, guid: 7d6be741cc5c597469a6e466e5a62462, type: 3}
  - m_RefCount: 1
    m_Data: {fileID: 21300000, guid: cd0f98a1b9bcee44896e7f7bb37b6afe, type: 3}
  m_TileMatrixArray:
  - m_RefCount: 23
    m_Data:
      e00: 1
      e01: 0
      e02: 0
      e03: 0
      e10: 0
      e11: 1
      e12: 0
      e13: 0
      e20: 0
      e21: 0
      e22: 1
      e23: 0
      e30: 0
      e31: 0
      e32: 0
      e33: 1
  m_TileColorArray:
  - m_RefCount: 23
    m_Data: {r: 1, g: 1, b: 1, a: 1}
  m_TileObjectToInstantiateArray: []
  m_AnimationFrameRate: 1
  m_Color: {r: 1, g: 1, b: 1, a: 1}
  m_Origin: {x: -1, y: -4, z: 0}
  m_Size: {x: 5, y: 5, z: 1}
  m_TileAnchor: {x: 0.5, y: 0.5, z: 0}
  m_TileOrientation: 0
  m_TileOrientationMatrix:
    e00: 1
    e01: 0
    e02: 0
    e03: 0
    e10: 0
    e11: 1
    e12: 0
    e13: 0
    e20: 0
    e21: 0
    e22: 1
    e23: 0
    e30: 0
    e31: 0
    e32: 0
    e33: 1
--- !u!483693784 &7575158890395563434
TilemapRenderer:
  m_ObjectHideFlags: 0
  m_CorrespondingSourceObject: {fileID: 0}
  m_PrefabInstance: {fileID: 0}
  m_PrefabAsset: {fileID: 0}
  m_GameObject: {fileID: 6398552948790962124}
  m_Enabled: 1
  m_CastShadows: 0
  m_ReceiveShadows: 0
  m_DynamicOccludee: 0
  m_StaticShadowCaster: 0
  m_MotionVectors: 1
  m_LightProbeUsage: 0
  m_ReflectionProbeUsage: 0
  m_RayTracingMode: 0
  m_RayTraceProcedural: 0
  m_RenderingLayerMask: 1
  m_RendererPriority: 0
  m_Materials:
  - {fileID: 10754, guid: 0000000000000000f000000000000000, type: 0}
  m_StaticBatchInfo:
    firstSubMesh: 0
    subMeshCount: 0
  m_StaticBatchRoot: {fileID: 0}
  m_ProbeAnchor: {fileID: 0}
  m_LightProbeVolumeOverride: {fileID: 0}
  m_ScaleInLightmap: 1
  m_ReceiveGI: 1
  m_PreserveUVs: 0
  m_IgnoreNormalsForChartDetection: 0
  m_ImportantGI: 0
  m_StitchLightmapSeams: 1
  m_SelectedEditorRenderState: 0
  m_MinimumChartSize: 4
  m_AutoUVMaxDistance: 0.5
  m_AutoUVMaxAngle: 89
  m_LightmapParameters: {fileID: 0}
  m_SortingLayerID: 0
  m_SortingLayer: 0
  m_SortingOrder: 0
  m_ChunkSize: {x: 32, y: 32, z: 32}
  m_ChunkCullingBounds: {x: 0, y: 0, z: 0}
  m_MaxChunkCount: 16
  m_MaxFrameAge: 16
  m_SortOrder: 0
  m_Mode: 0
  m_DetectChunkCullingBounds: 0
  m_MaskInteraction: 0
--- !u!114 &7039265710003872451
MonoBehaviour:
  m_ObjectHideFlags: 0
  m_CorrespondingSourceObject: {fileID: 0}
  m_PrefabInstance: {fileID: 0}
  m_PrefabAsset: {fileID: 0}
  m_GameObject: {fileID: 0}
  m_Enabled: 1
  m_EditorHideFlags: 0
  m_Script: {fileID: 12395, guid: 0000000000000000e000000000000000, type: 0}
  m_Name: Palette Settings
  m_EditorClassIdentifier: 
  cellSizing: 0
  m_TransparencySortMode: 0
  m_TransparencySortAxis: {x: 0, y: 0, z: 1}
